{
  "cookies": [
    {
      "name": "_gid",
      "value": "GA1.2.407722801.1741136923",
      "domain": ".lifemarkworkhealth.ca",
      "path": "/",
      "expires": 1741223335,
      "httpOnly": false,
      "secure": false,
      "sameSite": "Lax"
    },
    {
      "name": "_gat_gtag_UA_120546205_2",
      "value": "1",
      "domain": ".lifemarkworkhealth.ca",
      "path": "/",
      "expires": 1741136983,
      "httpOnly": false,
      "secure": false,
      "sameSite": "Lax"
    },
    {
      "name": "SSESS66aa3502d77ef533b3f7f6f53b3203d4",
      "value": "PZBJDH-p0Xhrwztt8G5a0Pgu5vPIpCzlPdDSs%2CFR8kFLtetK",
      "domain": ".www.lifemarkworkhealth.ca",
      "path": "/",
      "expires": 1743136934.830927,
      "httpOnly": true,
      "secure": true,
      "sameSite": "Lax"
    },
    {
      "name": "_ga",
      "value": "GA1.1.1966475381.1741136923",
      "domain": ".lifemarkworkhealth.ca",
      "path": "/",
      "expires": 1775696935.256263,
      "httpOnly": false,
      "secure": false,
      "sameSite": "Lax"
    },
    {
      "name": "_ga_6HF8YWSD8K",
      "value": "GS1.1.1741136923.1.1.1741136943.0.0.0",
      "domain": ".lifemarkworkhealth.ca",
      "path": "/",
      "expires": 1775696943.366177,
      "httpOnly": false,
      "secure": false,
      "sameSite": "Lax"
    }
  ],
  "origins": [
    {
      "origin": "https://www.lifemarkworkhealth.ca",
      "localStorage": [
        {
          "name": "Drupal.toolbar.activeTabID",
          "value": "\"toolbar-item-administration\""
        }
      ]
    }
  ]
}