{
  "cookies": [
    {
      "name": "refer_tracking",
      "value": "%7B%22utm_source%22%3A%22direct%22%2C%22utm_medium%22%3A%22unknown%22%2C%22utm_content%22%3A%22unknown%22%2C%22utm_campaign%22%3A%22generic%22%7D",
      "domain": "www.lifemark.ca",
      "path": "/",
      "expires": -1,
      "httpOnly": false,
      "secure": false,
      "sameSite": "Lax"
    },
    {
      "name": "_mkto_trk",
      "value": "id:329-QRK-460&token:_mch-www.lifemark.ca-1741136818585-52752",
      "domain": ".www.lifemark.ca",
      "path": "/",
      "expires": 1775696833.242169,
      "httpOnly": false,
      "secure": false,
      "sameSite": "Lax"
    },
    {
      "name": "_ga",
      "value": "GA1.3.821011476.1741136819",
      "domain": ".www.lifemark.ca",
      "path": "/",
      "expires": 1775696833.376005,
      "httpOnly": false,
      "secure": false,
      "sameSite": "Lax"
    },
    {
      "name": "_gid",
      "value": "GA1.3.800475228.1741136819",
      "domain": ".www.lifemark.ca",
      "path": "/",
      "expires": 1741223233,
      "httpOnly": false,
      "secure": false,
      "sameSite": "Lax"
    },
    {
      "name": "_gat_gtag_UA_75764336_1",
      "value": "1",
      "domain": ".www.lifemark.ca",
      "path": "/",
      "expires": 1741136878,
      "httpOnly": false,
      "secure": false,
      "sameSite": "Lax"
    },
    {
      "name": "_gcl_au",
      "value": "1.1.1919654469.1741136819",
      "domain": ".lifemark.ca",
      "path": "/",
      "expires": 1748912819,
      "httpOnly": false,
      "secure": false,
      "sameSite": "Lax"
    },
    {
      "name": "CLID",
      "value": "df0e1c8414e144f5a2dd136a0e41e2f8.20250305.20260305",
      "domain": "www.clarity.ms",
      "path": "/",
      "expires": 1772672818.003995,
      "httpOnly": true,
      "secure": true,
      "sameSite": "None"
    },
    {
      "name": "_clck",
      "value": "6nehue%7C2%7Cfty%7C0%7C1890",
      "domain": ".lifemark.ca",
      "path": "/",
      "expires": 1772672819,
      "httpOnly": false,
      "secure": false,
      "sameSite": "Lax"
    },
    {
      "name": "_ga",
      "value": "GA1.1.821011476.1741136819",
      "domain": ".lifemark.ca",
      "path": "/",
      "expires": 1775696833.281452,
      "httpOnly": false,
      "secure": false,
      "sameSite": "Lax"
    },
    {
      "name": "_fbp",
      "value": "fb.1.1741136819289.311810058633838564",
      "domain": ".lifemark.ca",
      "path": "/",
      "expires": 1748912833,
      "httpOnly": false,
      "secure": false,
      "sameSite": "Lax"
    },
    {
      "name": "_hjSessionUser_555234",
      "value": "eyJpZCI6ImM4NjhiNmY5LTNhOTYtNWQwZi1hMmVlLWQ4OGY3OTkzZWJkNSIsImNyZWF0ZWQiOjE3NDExMzY4MTkzMTksImV4aXN0aW5nIjp0cnVlfQ==",
      "domain": ".lifemark.ca",
      "path": "/",
      "expires": 1772672833,
      "httpOnly": false,
      "secure": true,
      "sameSite": "None"
    },
    {
      "name": "_hjSession_555234",
      "value": "eyJpZCI6Ijg2MDgxYzlhLTJjODgtNGFkMy04MGMyLWI2ZjVjYzdlNThjNiIsImMiOjE3NDExMzY4MTkzMTksInMiOjEsInIiOjAsInNiIjowLCJzciI6MCwic2UiOjAsImZzIjoxLCJzcCI6MH0=",
      "domain": ".lifemark.ca",
      "path": "/",
      "expires": 1741138619,
      "httpOnly": false,
      "secure": true,
      "sameSite": "None"
    },
    {
      "name": "calltrk_referrer",
      "value": "direct",
      "domain": ".lifemark.ca",
      "path": "/",
      "expires": 1756688833,
      "httpOnly": false,
      "secure": false,
      "sameSite": "Lax"
    },
    {
      "name": "calltrk_landing",
      "value": "https%3A//www.lifemark.ca/user",
      "domain": ".lifemark.ca",
      "path": "/",
      "expires": 1756688833,
      "httpOnly": false,
      "secure": false,
      "sameSite": "Lax"
    },
    {
      "name": "calltrk_session_id",
      "value": "9897e1c4-2ee6-4bda-8838-5ab0cf25f591",
      "domain": ".lifemark.ca",
      "path": "/",
      "expires": 1756688820,
      "httpOnly": false,
      "secure": false,
      "sameSite": "Lax"
    },
    {
      "name": "MUID",
      "value": "3A9BB5F9D015676D368BA05FD1BA66A9",
      "domain": ".bing.com",
      "path": "/",
      "expires": 1774832820.632493,
      "httpOnly": false,
      "secure": true,
      "sameSite": "None"
    },
    {
      "name": "MR",
      "value": "0",
      "domain": ".c.bing.com",
      "path": "/",
      "expires": 1741741620.632675,
      "httpOnly": false,
      "secure": true,
      "sameSite": "None"
    },
    {
      "name": "SRM_B",
      "value": "3A9BB5F9D015676D368BA05FD1BA66A9",
      "domain": ".c.bing.com",
      "path": "/",
      "expires": 1774832820.632769,
      "httpOnly": false,
      "secure": true,
      "sameSite": "None"
    },
    {
      "name": "SM",
      "value": "C",
      "domain": ".c.clarity.ms",
      "path": "/",
      "expires": -1,
      "httpOnly": false,
      "secure": true,
      "sameSite": "None"
    },
    {
      "name": "MUID",
      "value": "3A9BB5F9D015676D368BA05FD1BA66A9",
      "domain": ".clarity.ms",
      "path": "/",
      "expires": 1774832820.721717,
      "httpOnly": false,
      "secure": true,
      "sameSite": "None"
    },
    {
      "name": "MR",
      "value": "0",
      "domain": ".c.clarity.ms",
      "path": "/",
      "expires": 1741741620.721871,
      "httpOnly": false,
      "secure": true,
      "sameSite": "None"
    },
    {
      "name": "ANONCHK",
      "value": "0",
      "domain": ".c.clarity.ms",
      "path": "/",
      "expires": 1741137420.721929,
      "httpOnly": false,
      "secure": true,
      "sameSite": "None"
    },
    {
      "name": "SSESS4fdb616e5db174181fd6a90b9ddbc286",
      "value": "DHSRUJaWJXU8pzZKInStO09LX_OpJ07vsE0827ZXIs4",
      "domain": ".www.lifemark.ca",
      "path": "/",
      "expires": 1743136830.126591,
      "httpOnly": true,
      "secure": true,
      "sameSite": "None"
    },
    {
      "name": "IDE",
      "value": "AHWqTUneTAYIfXtG6xnfN94BQQss65JHPmyK1KedyrBb7QEOV8KCsy5e0A6YgUov",
      "domain": ".doubleclick.net",
      "path": "/",
      "expires": 1775696833.458844,
      "httpOnly": true,
      "secure": true,
      "sameSite": "None"
    },
    {
      "name": "_clsk",
      "value": "17hierp%7C1741136834264%7C2%7C1%7Cf.clarity.ms%2Fcollect",
      "domain": ".lifemark.ca",
      "path": "/",
      "expires": 1741223234,
      "httpOnly": false,
      "secure": false,
      "sameSite": "Lax"
    },
    {
      "name": "_ga_T97HKMXPMG",
      "value": "GS1.1.1741136819.1.1.1741136839.0.0.0",
      "domain": ".lifemark.ca",
      "path": "/",
      "expires": 1775696839.41412,
      "httpOnly": false,
      "secure": false,
      "sameSite": "Lax"
    }
  ],
  "origins": [
    {
      "origin": "https://www.lifemark.ca",
      "localStorage": [
        {
          "name": "calltrk-integration-data-ttl",
          "value": "1741138620138"
        },
        {
          "name": "calltrk-calltrk_referrer",
          "value": "\"direct\""
        },
        {
          "name": "calltrk-calltrk_session_id",
          "value": "\"9897e1c4-2ee6-4bda-8838-5ab0cf25f591\""
        },
        {
          "name": "02DbCJ_Bv8oBEMypp5UD,18554851344",
          "value": "https://www.googleadservices.com/pagead/conversion/849990860/wcm?cc=ZZ&dn=18554851344&cl=02DbCJ_Bv8oBEMypp5UD&dma=0&npa=0&ct_eid=2"
        },
        {
          "name": "lastExternalReferrer",
          "value": "empty"
        },
        {
          "name": "lastExternalReferrerTime",
          "value": "1741136819285"
        },
        {
          "name": "calltrk-calltrk_landing",
          "value": "\"https://www.lifemark.ca/user\""
        },
        {
          "name": "02DbCJ_Bv8oBEMypp5UD,18554851344_expiresAt",
          "value": "1741147619326"
        }
      ]
    }
  ]
}