Handle,Title,Body (HTML),Vendor,Product Category,Type,Tags,Published,Option1 Name,Option1 Value,Option1 Linked To,Option2 Name,Option2 Value,Option2 Linked To,Option3 Name,Option3 Value,Option3 Linked To,Variant SKU,Variant Grams,Variant Inventory Tracker,Variant Inventory Qty,Variant Inventory Policy,Variant Fulfillment Service,Variant Price,Variant Compare At Price,Variant Requires Shipping,Variant Taxable,Variant Barcode,Image Src,Image Position,Image Alt Text,Gift Card,SEO Title,SEO Description,Google Shopping / Google Product Category,Google Shopping / Gender,Google Shopping / Age Group,Google Shopping / MPN,Google Shopping / Condition,Google Shopping / Custom Product,Google Shopping / Custom Label 0,Google Shopping / Custom Label 1,Google Shopping / Custom Label 2,Google Shopping / Custom Label 3,Google Shopping / Custom Label 4,Artist Bio (product.metafields.custom.artist_bio),The Artist (product.metafields.custom.designers),Fibers & Materials (product.metafields.custom.fibers),Personalized (product.metafields.custom.personalized),Artist (product.metafields.custom.subtitle_artist_name),Google: Custom Product (product.metafields.mm-google-shopping.custom_product),Product rating count (product.metafields.reviews.rating_count),Color (product.metafields.shopify.color-pattern),Complementary products (product.metafields.shopify--discovery--product_recommendation.complementary_products),Related products (product.metafields.shopify--discovery--product_recommendation.related_products),Related products settings (product.metafields.shopify--discovery--product_recommendation.related_products_display),Variant Image,Variant Weight Unit,Variant Tax Code,Cost per item,Included / United States,Price / United States,Compare At Price / United States,Included / International,Price / International,Compare At Price / International,Status
bookhou-blanket,Copy Arches Merino Wool (2 Reviews),"<meta charset=""utf-8"">
<p data-mce-fragment=""1""><i><span style=""font-weight: 400;"">Arches</span></i><span style=""font-weight: 400;""> by artist </span><span style=""font-weight: 400;"">Arounna Khounnoraj </span><span style=""font-weight: 400;"">of </span><span style=""font-weight: 400;"">Bookhou mirrors organic, playful shapes of colors and delicate linework in a large-scale landscape-like design. Knitted in a luxurious machine washable 100% Italian Merino Wool.</span></p>",By Arounna Khounnoraj of Bookhou,Home & Garden > Linens & Bedding > Bedding > Blankets,Full size blanket,"Arounna Khounnoraj of Bookhou, Black, Merino Wool, Verishop, White",FALSE,Color,Apricot,,,,,,,,Arches-Apricot MW,1360.77711,,191,continue,manual,250.00,,TRUE,TRUE,1.96705E+11,https://cdn.shopify.com/s/files/1/0553/3273/2971/products/BKH-MW-01_frontcopy_b3bbfcf5-2a7a-4d07-a9be-08df67a2210d-914378.jpg?v=1701192513,1,Arches Throw Blanket - Biquette,FALSE,Throw Blanket  |  Arches  |  Merino Wool,"Knit throw blanket in 100% extrafine Merino wool designed by Artist Arounna Khounnoraj of Bookhou.  Knit in USA | Made to Order.  Size 50""x60"".  Machine washable & tumble dry safe.  
",Home & Garden > Linens & Bedding > Bedding > Blankets,,,,new,FALSE,,,,,,,"Designed by Arounna Khounnoraj of Bookhou, a multidisciplinary studio based in Toronto, Canada, that emphasizes natural handmade materials and small production pieces. ","Our mulesing-free Merino Wool comes from Italy.  Its extra fine fiber makes it feel incredibly soft, squishy, and will not itch, yet very durable and with minimal pilling.  Our wools are pre-shrunk and are pre-treated for easy care.   They are safe for machine wash and tumble dry, however must be in LOW HEAT.   More about our Merino Wool",,Arounna Khounnoraj (Bookhou),FALSE,6,,,,,https://cdn.shopify.com/s/files/1/0553/3273/2971/products/BKH-MW-01_frontcopy_b3bbfcf5-2a7a-4d07-a9be-08df67a2210d-914378.jpg?v=1701192513,lb,,,TRUE,,,TRUE,,,archived
bookhou-blanket-organic-cotton,Arches Throw Blanket in Organic Cotton (1 Review),"<meta charset=""utf-8"">
<p data-mce-fragment=""1""><i><span style=""font-weight: 400;"" data-mce-style=""font-weight: 400;"">Arches</span></i><span style=""font-weight: 400;"" data-mce-style=""font-weight: 400;""> by artist </span><span style=""font-weight: 400;"" data-mce-style=""font-weight: 400;"">Arounna Khounnoraj </span><span style=""font-weight: 400;"" data-mce-style=""font-weight: 400;"">of </span><span style=""font-weight: 400;"" data-mce-style=""font-weight: 400;"">Bookhou mirrors organic, playful shapes of colors and delicate linework in a large-scale landscape-like design. Knitted in a soft and sustainable organic cotton.</span></p>
<p data-mce-fragment=""1""> </p>",By Arounna Khounnoraj of Bookhou,Home & Garden > Linens & Bedding > Bedding > Blankets,Full size blanket,"Arounna Khounnoraj of Bookhou, Black, Brown, Organic Cotton, Verishop, White",FALSE,Select - Fiber | Color,Clay,,,,,,,,Arches-Clay OC,1360.77711,,90,continue,manual,175.00,,TRUE,TRUE,1.96705E+11,https://cdn.shopify.com/s/files/1/0553/3273/2971/products/arches-knit-throw-blanket-organic-cotton-219589.jpg?v=1657253431,1,Arches | Knit Throw Blanket | Organic Cotton - Biquette,FALSE,Throw Blanket  |  Arches  |  Organic Cotton,"Knit throw blanket in 100% organic cotton designed by Artist Arounna Khounnoraj of Bookhou.  Knit in USA | Made to Order.  Size 50""x60"".  Machine washable & tumble dry safe.  
",Home & Garden > Linens & Bedding > Bedding > Blankets,,,,new,FALSE,,,,,,,"Designed by Arounna Khounnoraj of Bookhou, a multidisciplinary studio based in Toronto, Canada, that emphasizes natural handmade materials and small production pieces. 
","Organic cotton is grown free of pesticides and other toxic chemicals, while feeling incredibly soft.  Organic cotton farming also uses up to 90% less water than conventional cotton farming.  It is undoubtedly the industry’s top choice for baby blankets and for sustainability.   More about our Organic Cotton ",,Arounna Khounnoraj (Bookhou),FALSE,6,,,,,https://cdn.shopify.com/s/files/1/0553/3273/2971/products/arches-knit-throw-blanket-organic-cotton-219589.jpg?v=1657253431,lb,,,TRUE,,,TRUE,,,archived
charlotte-ager-blanket,Grow Throw Blanket in Merino Wool (1 Review),"<p data-mce-fragment=""1""><i><span style=""font-weight: 400;"">Grow, </span></i><span style=""font-weight: 400;"">designed by artist Charlotte Ager, is perfectly peaceful. Held by flowing flowers, the large scale figurative image is thoughtful and quiet, a great companion to a warm cup of tea. Knitted in a luxurious machine washable 100% Italian Merino Wool. </span><span style=""font-weight: 400;""><br></span></p>
<p data-mce-fragment=""1""> </p>",By Charlotte Ager,Home & Garden > Linens & Bedding > Bedding > Blankets,Full size blanket,"Blue, Charlotte Ager, Green, Merino Wool, Verishop",FALSE,Select - Fiber | Color,Indigo,,,,,,,,Grow-Indigo MW,1360.77711,,100,continue,manual,250.00,,TRUE,TRUE,1.96705E+11,https://cdn.shopify.com/s/files/1/0553/3273/2971/files/221030_Biquette_SHOT_18_0069.jpg?v=1697150490,1,,FALSE,Throw Blanket  |  Grow  |  Merino Wool,"Knit throw blanket in 100% extrafine Merino wool designed by Artist Charlotte Ager.  Knit in USA | Made to Order.  Size 50""x60"".  Machine washable & tumble dry safe.  
",Home & Garden > Linens & Bedding > Bedding > Blankets,,,,new,FALSE,,,,,,,"Designed by Charlotte Ager, a talented illustrator based in London whose tender drawings explore ""the difficult and challenging whilst having an enormous capacity for joy and silliness."" 
","Our mulesing-free Merino Wool comes from Italy.  Its extrafine fiber makes it feel incredibly soft, squishy, and will not itch, yet very durable and with minimal pilling.  Our wools are pre-shrunk and are pre-treated for easy care.   They are safe for machine wash and tumble dry, however must be in LOW HEAT.   More about our Merino Wool",,Charlotte Ager,FALSE,4,,,,,https://cdn.shopify.com/s/files/1/0553/3273/2971/products/charlotte-ager-blanket-414646.jpg?v=1697150490,lb,,,TRUE,,,TRUE,,,archived
